<?xml version="1.0" encoding="UTF-8" standalone="no"?>
<!-- Created with Inkscape (http://www.inkscape.org/) -->

<svg
   xmlns:dc="http://purl.org/dc/elements/1.1/"
   xmlns:cc="http://creativecommons.org/ns#"
   xmlns:rdf="http://www.w3.org/1999/02/22-rdf-syntax-ns#"
   xmlns:svg="http://www.w3.org/2000/svg"
   xmlns="http://www.w3.org/2000/svg"
   xmlns:sodipodi="http://sodipodi.sourceforge.net/DTD/sodipodi-0.dtd"
   xmlns:inkscape="http://www.inkscape.org/namespaces/inkscape"
   width="9cm"
   height="3cm"
   viewBox="0 0 318.89764 106.29921"
   id="svg6419"
   version="1.1"
   inkscape:version="0.91 r13725"
   sodipodi:docname="contour9-logo.svg"
   inkscape:export-filename="/media/ludi/data/work/work.contour/logo/contour9-logo.png"
   inkscape:export-xdpi="383.27301"
   inkscape:export-ydpi="383.27301">
  <defs
     id="defs6421" />
  <sodipodi:namedview
     id="base"
     pagecolor="#ffffff"
     bordercolor="#666666"
     borderopacity="1.0"
     inkscape:pageopacity="0.0"
     inkscape:pageshadow="2"
     inkscape:zoom="2.8"
     inkscape:cx="160.30688"
     inkscape:cy="27.937824"
     inkscape:document-units="px"
     inkscape:current-layer="layer1"
     showgrid="false"
     units="cm"
     inkscape:showpageshadow="false"
     borderlayer="true"
     showborder="true"
     inkscape:window-width="1920"
     inkscape:window-height="1031"
     inkscape:window-x="0"
     inkscape:window-y="27"
     inkscape:window-maximized="1" />
  <metadata
     id="metadata6424">
    <rdf:RDF>
      <cc:Work
         rdf:about="">
        <dc:format>image/svg+xml</dc:format>
        <dc:type
           rdf:resource="http://purl.org/dc/dcmitype/StillImage" />
        <dc:title></dc:title>
      </cc:Work>
    </rdf:RDF>
  </metadata>
  <g
     inkscape:label="Layer 1"
     inkscape:groupmode="layer"
     id="layer1"
     transform="translate(0,-946.06305)">
    <path
       style="font-style:normal;font-variant:normal;font-weight:bold;font-stretch:expanded;font-size:93.75px;line-height:0%;font-family:Syne;-inkscape-font-specification:'Syne, Bold Expanded';text-align:start;letter-spacing:21px;word-spacing:0px;writing-mode:lr-tb;text-anchor:start;fill:#000000;fill-opacity:1;stroke:none;stroke-width:1px;stroke-linecap:butt;stroke-linejoin:miter;stroke-opacity:1"
       d="M 192.49414 10.466797 C 191.2433 10.545197 190.0383 10.967649 189.00977 11.662109 C 187.98237 12.355819 187.15366 13.305401 186.58789 14.394531 C 186.02268 15.482621 185.72883 16.690727 185.71094 17.904297 C 185.68584 19.607707 186.20164 21.258605 187.0625 22.671875 C 187.85814 23.978025 188.94987 25.043496 190.1582 25.910156 C 188.05583 26.643006 185.80613 27.083435 183.46875 27.359375 C 179.33146 27.847765 175.15767 28.117465 170.9707 28.296875 C 164.7161 28.564825 158.46162 28.616768 152.50391 27.273438 C 152.25127 27.216437 152.02362 27.113741 151.77344 27.050781 C 152.7965 26.188951 153.73444 25.194884 154.39648 23.990234 C 155.11691 22.679344 155.54378 21.185294 155.5293 19.646484 C 155.5188 18.506204 155.26442 17.367045 154.76172 16.328125 C 154.10225 14.965245 153.03382 13.822485 151.71094 13.078125 C 150.38754 12.333445 148.85176 12.011225 147.33789 12.171875 C 145.82341 12.332575 144.38109 12.970641 143.24805 13.994141 C 142.11454 15.018041 141.32836 16.392711 141.0293 17.894531 C 140.71738 19.461051 140.949 21.066618 141.55859 22.486328 C 142.16575 23.900418 143.12838 25.107446 144.25781 26.072266 C 144.9533 26.666386 145.76796 27.020279 146.54883 27.443359 C 145.53287 27.835999 144.48033 28.178647 143.39062 28.435547 C 139.1585 29.433277 134.71911 29.681116 130.23633 29.972656 C 99.632224 31.962896 69.255813 36.212626 38.923828 40.316406 C 30.271706 41.486996 21.61803 42.646812 12.962891 43.794922 L 13.267578 46.080078 C 21.924696 44.931708 30.580271 43.772433 39.234375 42.601562 C 69.573248 38.496863 99.894284 34.256287 130.38477 32.273438 C 134.8516 31.982938 139.42285 31.739878 143.91992 30.679688 C 145.72031 30.255247 147.50126 29.559672 149.20312 28.669922 C 150.13384 28.984082 151.06674 29.311944 151.99609 29.521484 C 158.30224 30.943384 164.76465 30.869749 171.07031 30.599609 C 175.28986 30.418809 179.51931 30.148431 183.73828 29.650391 C 186.62037 29.310151 189.62177 28.85182 192.42969 27.59375 C 192.59753 27.51855 192.7304 27.370513 192.89648 27.289062 C 194.92371 28.164202 197.03835 28.772953 199.14062 29.064453 C 205.65378 29.967593 212.15391 29.498406 218.49609 29.628906 C 227.43649 29.812836 236.58052 31.197634 245.75781 29.958984 C 247.58278 29.712684 249.42563 29.266848 251.2207 28.642578 C 251.47242 28.773598 251.67502 29.000617 251.93164 29.117188 C 254.71739 30.382628 257.6845 30.821499 260.49805 31.255859 C 277.17368 33.830299 293.79635 36.749526 310.35156 40.009766 L 310.79883 37.746094 C 294.21248 34.479734 277.55855 31.555843 260.85156 28.976562 C 258.42946 28.602633 256.10071 28.150495 253.95703 27.359375 C 254.32759 27.151865 254.74374 27.066299 255.09961 26.824219 C 257.11245 25.454959 258.83902 23.475539 259.54297 21.011719 C 259.89537 19.778249 259.97718 18.454886 259.71094 17.166016 C 259.44392 15.873516 258.8276 14.645657 257.88086 13.679688 C 256.79888 12.575748 255.36038 11.895175 253.85156 11.703125 C 252.34674 11.511615 250.82388 11.806308 249.49609 12.486328 C 247.73258 13.389598 246.36692 14.943491 245.65625 16.775391 C 244.94682 18.604181 244.91092 20.640457 245.50586 22.492188 C 246.0077 24.054188 246.93124 25.425636 248.06836 26.535156 C 248.26502 26.727036 248.53027 26.806172 248.73828 26.982422 C 247.65872 27.253312 246.57412 27.522008 245.44922 27.673828 C 236.70435 28.854108 227.68339 27.510306 218.54297 27.322266 C 212.05868 27.188836 205.65152 27.6402 199.45703 26.78125 C 197.97428 26.57565 196.5272 26.262139 195.1543 25.818359 C 196.81285 24.590559 198.2925 23.127644 199.0918 21.152344 C 199.77686 19.459314 199.9871 17.541124 199.50781 15.714844 C 199.02524 13.875934 197.84162 12.213051 196.12305 11.269531 C 195.01236 10.659731 193.7465 10.388237 192.49414 10.466797 z M 192.63867 12.769531 C 193.45887 12.718031 194.30406 12.901406 195.01367 13.291016 C 196.10512 13.890226 196.94624 15.039041 197.27734 16.300781 C 197.6118 17.575171 197.47243 19.008559 196.95508 20.287109 C 196.19747 22.159389 194.56524 23.59144 192.7168 24.6875 C 192.39832 24.51355 192.02155 24.428913 191.72266 24.226562 C 190.63326 23.489092 189.68972 22.553626 189.03125 21.472656 C 188.37533 20.395836 187.9997 19.14935 188.01758 17.9375 C 188.03028 17.07465 188.24271 16.211781 188.63477 15.457031 C 189.0263 14.703321 189.60714 14.042569 190.30078 13.574219 C 190.99331 13.106619 191.81693 12.821071 192.63867 12.769531 z M 252.79492 13.955078 C 253.05227 13.946771 253.30824 13.958124 253.56055 13.990234 C 254.56579 14.118194 255.54239 14.586939 256.23438 15.292969 C 256.84256 15.913519 257.27071 16.749833 257.45312 17.632812 C 257.63628 18.519473 257.58403 19.476376 257.32617 20.378906 C 256.80958 22.186996 255.46333 23.788329 253.80273 24.917969 C 253.08184 25.408349 252.22363 25.689033 251.40625 26.033203 C 250.81913 25.657663 250.16475 25.358002 249.67773 24.882812 C 248.77637 24.003333 248.07049 22.934656 247.70117 21.785156 C 247.26715 20.434266 247.29949 18.916715 247.80664 17.609375 C 248.31261 16.305135 249.31643 15.169292 250.54688 14.539062 C 251.24278 14.182663 252.02288 13.98 252.79492 13.955078 z M 148.35352 14.445312 C 149.13021 14.4866 149.90517 14.708113 150.58008 15.087891 C 151.48047 15.594521 152.23579 16.398521 152.6875 17.332031 C 153.03404 18.048211 153.21714 18.858569 153.22461 19.667969 C 153.23491 20.761949 152.92459 21.884379 152.37695 22.880859 C 151.82756 23.880539 151.03756 24.771626 150.11133 25.509766 C 149.76293 25.787406 149.32016 25.947254 148.9375 26.183594 C 147.76326 25.703924 146.67581 25.106183 145.75586 24.320312 C 144.85811 23.553413 144.12246 22.613915 143.67773 21.578125 C 143.23543 20.547975 143.08229 19.393993 143.29102 18.345703 C 143.49017 17.345593 144.0334 16.393151 144.79297 15.707031 C 145.55305 15.020431 146.55774 14.573324 147.58008 14.464844 C 147.83582 14.437706 148.09462 14.43155 148.35352 14.445312 z M 197.9043 39.558594 L 188.41602 39.794922 L 188.76367 53.759766 L 191.66211 53.6875 L 191.5332 48.542969 L 196.80664 48.410156 C 199.07639 48.353456 200.31939 48.755849 200.35938 50.355469 L 200.45898 53.466797 L 203.3125 53.396484 L 203.22852 50.066406 C 203.17932 48.099286 202.12705 47.520714 199.93945 47.402344 C 201.94115 47.006224 203.43 46.016376 203.37109 43.660156 C 203.29709 40.698686 201.1468 39.477544 197.9043 39.558594 z M 159.86133 40.808594 L 156.99023 40.947266 L 157.36523 48.744141 C 157.52249 52.005501 155.41715 52.800157 152.60938 52.935547 C 149.7152 53.075097 147.58694 52.483996 147.42969 49.222656 L 147.05469 41.425781 L 144.16016 41.564453 L 144.55078 49.664062 C 144.77469 54.307662 148.34601 55.650853 152.73047 55.439453 C 156.96374 55.235353 160.47584 53.551843 160.25195 48.908203 L 159.86133 40.808594 z M 197.9668 42.042969 C 199.43673 42.006269 200.48971 42.608836 200.5 43.884766 C 200.5335 45.224996 199.53829 46.070672 198.06836 46.107422 L 191.47656 46.273438 L 191.375 42.208984 L 197.9668 42.042969 z M 248.01562 42.136719 C 243.7173 41.935669 241.19427 43.591804 241.01367 46.527344 C 240.83609 49.398104 243.08172 51.364894 246.42969 51.521484 C 247.89847 51.590184 249.06533 51.191192 250.16211 50.419922 L 244.94922 56.324219 L 248.49219 56.488281 C 248.49219 56.488281 253.35789 50.113751 253.68555 49.587891 C 254.35843 48.623611 254.63447 47.835068 254.69141 47.080078 C 254.85245 44.100318 252.31398 42.337779 248.01562 42.136719 z M 118.37695 42.900391 C 118.04591 42.902726 117.70521 42.9166 117.35742 42.941406 C 111.77116 43.339876 108.73162 46.308491 109.05469 50.837891 C 109.37776 55.367341 112.80826 57.876916 118.39453 57.478516 C 123.95922 57.081516 127.02034 54.109448 126.69727 49.580078 C 126.39439 45.333756 123.34258 42.865359 118.37695 42.900391 z M 103 44.320312 L 88.289062 45.619141 L 88.501953 48.033203 L 94.425781 47.507812 L 95.443359 59.011719 L 98.306641 58.757812 L 97.291016 47.255859 L 103.21484 46.732422 L 103 44.320312 z M 247.89062 44.380859 C 250.245 44.490999 251.8904 45.413992 251.79102 47.076172 C 251.72232 48.544962 250.07393 49.527346 247.56836 49.410156 C 245.23559 49.301036 243.78543 48.345513 243.88281 46.726562 C 243.98321 45.042772 245.55787 44.271769 247.89062 44.380859 z M 118.71484 45.453125 C 121.38751 45.605102 123.4785 47.001773 123.67773 49.794922 C 123.90849 53.030192 121.43051 54.747363 118.2168 54.976562 C 115.00307 55.205762 112.21905 53.864196 111.98828 50.628906 C 111.76061 47.436756 114.3234 45.694064 117.53711 45.464844 C 117.93883 45.436189 118.33303 45.431414 118.71484 45.453125 z M 81.15625 46.300781 L 78.296875 46.607422 L 79.380859 56.734375 L 67.955078 47.714844 L 65.074219 48.023438 L 66.560547 61.912109 L 69.441406 61.603516 L 68.363281 51.519531 L 79.783203 60.496094 L 82.644531 60.191406 L 81.15625 46.300781 z M 50.351562 49.65625 C 49.722746 49.653426 49.062615 49.695151 48.371094 49.785156 C 42.817469 50.507986 39.954935 53.651337 40.541016 58.154297 C 41.127096 62.657197 44.698329 64.961181 50.251953 64.238281 C 55.784104 63.518281 58.668112 60.374094 58.082031 55.871094 C 57.569211 51.931074 54.753279 49.676019 50.351562 49.65625 z M 49.871094 52.214844 C 52.548066 52.211056 54.718662 53.484889 55.080078 56.261719 C 55.498707 59.478019 53.122667 61.3342 49.927734 61.75 C 46.732777 62.1659 43.87566 60.989838 43.457031 57.773438 C 43.043984 54.599938 45.502333 52.710752 48.697266 52.294922 C 49.096632 52.242942 49.488669 52.215385 49.871094 52.214844 z M 26.765625 53.039062 C 26.001997 53.018648 25.180022 53.073294 24.306641 53.208984 C 19.114468 54.015684 15.931582 57.049553 16.671875 61.814453 C 17.408823 66.557953 21.352725 68.418028 26.544922 67.611328 C 31.202934 66.887628 33.74584 64.522428 33.587891 61.111328 L 30.767578 61.550781 C 30.466189 63.413881 28.990373 64.759066 26.169922 65.197266 C 22.665711 65.741766 20.062789 64.482881 19.578125 61.363281 C 19.093462 58.243681 21.18917 56.2319 24.693359 55.6875 C 27.51381 55.2493 29.352621 56.101256 30.205078 57.785156 L 33.025391 57.347656 C 32.304096 54.650481 30.074681 53.127524 26.765625 53.039062 z M 218.37305 64.136719 L 218.29883 78.105469 L 231.98633 78.177734 L 232 75.800781 L 221.20898 75.742188 L 221.23047 72.044922 L 230.0293 72.091797 L 230.03906 70.320312 L 221.23828 70.271484 L 221.25781 66.552734 L 232.02734 66.609375 L 232.03906 64.210938 L 218.37305 64.136719 z M 181.0957 64.630859 L 178.19922 64.695312 L 178.51758 78.660156 L 180.26953 78.621094 L 180.26953 78.642578 L 190.68945 78.40625 L 190.63477 76.005859 L 181.36133 76.216797 L 181.0957 64.630859 z M 154.36328 65.552734 L 151.23047 65.695312 L 145.30078 79.949219 L 148.41211 79.806641 L 149.71484 76.566406 L 156.88672 76.238281 L 158.47852 79.347656 L 161.61133 79.205078 L 154.36328 65.552734 z M 137.56836 66.382812 L 134.69727 66.570312 L 135.35547 76.732422 L 124.31836 67.242188 L 121.42773 67.429688 L 122.33008 81.369141 L 125.2207 81.181641 L 124.56641 71.060547 L 135.59961 80.509766 L 138.4707 80.324219 L 137.56836 66.382812 z M 113.05273 68.060547 L 110.1875 68.298828 L 111.0332 78.449219 L 99.822266 69.162109 L 96.935547 69.404297 L 98.095703 83.324219 L 100.98242 83.083984 L 100.14062 72.976562 L 111.34766 82.21875 L 114.21289 81.980469 L 113.05273 68.060547 z M 152.93945 68.517578 L 155.81641 74.144531 L 150.58984 74.382812 L 152.93945 68.517578 z M 88.914062 70.146484 L 75.316406 71.513672 L 76.712891 85.412109 L 90.332031 84.042969 L 90.09375 81.675781 L 79.357422 82.755859 L 78.988281 79.076172 L 87.746094 78.195312 L 87.568359 76.431641 L 78.810547 77.3125 L 78.439453 73.611328 L 89.154297 72.535156 L 88.914062 70.146484 z M 66.615234 72.480469 L 63.757812 72.806641 L 65.339844 86.685547 L 68.197266 86.359375 L 66.615234 72.480469 z M 50.9375 74.410156 C 50.522905 74.424199 50.082922 74.461809 49.619141 74.521484 L 41.621094 75.550781 L 43.402344 89.404297 L 52.195312 88.273438 C 55.404015 87.795237 57.457425 86.288306 57.115234 83.628906 C 56.822724 81.355606 54.922218 80.989094 52.541016 81.121094 C 54.754282 80.531094 56.061452 79.513809 55.791016 77.412109 C 55.523001 75.329084 53.839667 74.311858 50.9375 74.410156 z M 50.589844 76.841797 C 51.879356 76.793597 52.736442 77.224894 52.878906 78.332031 C 53.047234 79.640231 52.14919 80.451794 50.347656 80.683594 L 45.287109 81.335938 L 44.800781 77.560547 L 50.011719 76.890625 C 50.212782 76.86475 50.405628 76.848683 50.589844 76.841797 z M 52.035156 82.203125 C 53.14826 82.2284 54.015385 82.594853 54.158203 83.705078 C 54.323763 84.991878 53.410886 85.676403 51.609375 85.908203 L 45.96875 86.632812 L 45.496094 82.964844 L 50.857422 82.275391 C 51.264905 82.222966 51.664122 82.1947 52.035156 82.203125 z "
       transform="translate(0,946.06305)"
       id="path6545" />
  </g>
</svg>
