<?xml version="1.0" encoding="UTF-8"?>
<glyph name="Amacron" format="1">
  <advance width="621"/>
  <unicode hex="0100"/>
  <outline>
    <component base="A"/>
    <component base="macroncomb" xOffset="148" yOffset="180"/>
  </outline>
  <lib>
    <dict>
      <key>com.schriftgestaltung.Glyphs.lastChange</key>
      <string>2018-01-09 09:49:19 +0000</string>
    </dict>
  </lib>
</glyph>
