<?xml version="1.0" encoding="UTF-8"?>
<glyph name="exclam" format="1">
  <advance width="275"/>
  <unicode hex="0021"/>
  <note>
    exclam
  </note>
  <outline>
    <contour>
      <point x="92" y="534" type="line"/>
      <point x="88" y="650" type="line"/>
      <point x="185" y="650" type="line"/>
      <point x="180" y="534" type="line"/>
    </contour>
    <contour>
      <point x="177" y="0" type="line"/>
      <point x="177" y="95" type="line"/>
      <point x="95" y="95" type="line"/>
      <point x="95" y="0" type="line"/>
    </contour>
    <contour>
      <point x="180" y="534" type="line"/>
      <point x="166" y="181" type="line"/>
      <point x="105" y="181" type="line"/>
      <point x="92" y="534" type="line"/>
    </contour>
  </outline>
  <lib>
    <dict>
      <key>com.schriftgestaltung.Glyphs.lastChange</key>
      <string>2018-01-09 09:49:18 +0000</string>
      <key>com.typemytype.robofont.layerData</key>
      <dict>
        <key>Regular Oct 23 16, 18:15</key>
        <dict>
          <key>anchors</key>
          <array>
          </array>
          <key>components</key>
          <array>
          </array>
          <key>contours</key>
          <array>
            <dict>
              <key>points</key>
              <array>
                <dict>
                  <key>segmentType</key>
                  <string>line</string>
                  <key>smooth</key>
                  <false/>
                  <key>x</key>
                  <integer>179</integer>
                  <key>y</key>
                  <integer>181</integer>
                </dict>
                <dict>
                  <key>segmentType</key>
                  <string>line</string>
                  <key>smooth</key>
                  <false/>
                  <key>x</key>
                  <integer>108</integer>
                  <key>y</key>
                  <integer>181</integer>
                </dict>
                <dict>
                  <key>segmentType</key>
                  <string>line</string>
                  <key>smooth</key>
                  <false/>
                  <key>x</key>
                  <integer>91</integer>
                  <key>y</key>
                  <integer>650</integer>
                </dict>
                <dict>
                  <key>segmentType</key>
                  <string>line</string>
                  <key>smooth</key>
                  <false/>
                  <key>x</key>
                  <integer>198</integer>
                  <key>y</key>
                  <integer>650</integer>
                </dict>
              </array>
            </dict>
            <dict>
              <key>points</key>
              <array>
                <dict>
                  <key>smooth</key>
                  <false/>
                  <key>x</key>
                  <integer>111</integer>
                  <key>y</key>
                  <integer>89</integer>
                </dict>
                <dict>
                  <key>smooth</key>
                  <false/>
                  <key>x</key>
                  <integer>87</integer>
                  <key>y</key>
                  <integer>65</integer>
                </dict>
                <dict>
                  <key>segmentType</key>
                  <string>curve</string>
                  <key>smooth</key>
                  <true/>
                  <key>x</key>
                  <integer>87</integer>
                  <key>y</key>
                  <integer>40</integer>
                </dict>
                <dict>
                  <key>smooth</key>
                  <false/>
                  <key>x</key>
                  <integer>87</integer>
                  <key>y</key>
                  <integer>13</integer>
                </dict>
                <dict>
                  <key>smooth</key>
                  <false/>
                  <key>x</key>
                  <integer>111</integer>
                  <key>y</key>
                  <integer>-9</integer>
                </dict>
                <dict>
                  <key>segmentType</key>
                  <string>curve</string>
                  <key>smooth</key>
                  <true/>
                  <key>x</key>
                  <integer>145</integer>
                  <key>y</key>
                  <integer>-9</integer>
                </dict>
                <dict>
                  <key>smooth</key>
                  <false/>
                  <key>x</key>
                  <integer>178</integer>
                  <key>y</key>
                  <integer>-9</integer>
                </dict>
                <dict>
                  <key>smooth</key>
                  <false/>
                  <key>x</key>
                  <integer>201</integer>
                  <key>y</key>
                  <integer>13</integer>
                </dict>
                <dict>
                  <key>segmentType</key>
                  <string>curve</string>
                  <key>smooth</key>
                  <true/>
                  <key>x</key>
                  <integer>201</integer>
                  <key>y</key>
                  <integer>40</integer>
                </dict>
                <dict>
                  <key>smooth</key>
                  <false/>
                  <key>x</key>
                  <integer>201</integer>
                  <key>y</key>
                  <integer>65</integer>
                </dict>
                <dict>
                  <key>smooth</key>
                  <false/>
                  <key>x</key>
                  <integer>178</integer>
                  <key>y</key>
                  <integer>89</integer>
                </dict>
                <dict>
                  <key>segmentType</key>
                  <string>curve</string>
                  <key>smooth</key>
                  <true/>
                  <key>x</key>
                  <integer>145</integer>
                  <key>y</key>
                  <integer>89</integer>
                </dict>
              </array>
            </dict>
          </array>
          <key>lib</key>
          <dict>
          </dict>
          <key>name</key>
          <string>exclam</string>
          <key>unicodes</key>
          <array>
          </array>
          <key>width</key>
          <integer>304</integer>
        </dict>
      </dict>
    </dict>
  </lib>
</glyph>
