<?xml version="1.0" encoding="UTF-8"?>
<glyph name="lessequal" format="1">
  <advance width="600"/>
  <unicode hex="2264"/>
  <outline>
    <component base="greaterequal" xOffset="604" xScale="-1"/>
  </outline>
  <lib>
    <dict>
      <key>com.schriftgestaltung.Glyphs.lastChange</key>
      <string>2018-01-09 09:49:19 +0000</string>
    </dict>
  </lib>
</glyph>
