<?xml version="1.0"?>
<!-- Created by MetaPost 2.000 on 2018.11.30:1546 -->
<svg version="1.1" xmlns="http://www.w3.org/2000/svg" xmlns:xlink="http://www.w3.org/1999/xlink" width="2269.712402" height="228.786682" viewBox="0 0 2269.712402 228.786682">
<!-- Original BoundingBox: -1.000000 -1.015442 2268.712402 227.771240 -->
  <path d="M1.000000 227.000000L209.445724 227.000000C265.175537 227.000000,324.751297 212.656189,338.429199 162.117798C344.878723 138.287506,322.842316 116.344742,298.246735 122.231308C283.933319 125.656998,289.979599 145.536453,302.098221 141.740112C314.244873 137.934982,307.834610 118.143280,294.139359 123.518936C285.926834 126.742493,279.307068 133.516464,277.260712 143.767899C275.214355 154.019333,278.725998 162.815704,285.071457 168.945297C295.653214 179.167053,309.170929 163.353317,299.416122 155.176270C289.683823 147.018112,276.468506 163.052628,288.369690 171.711197C308.807358 186.580399,337.564392 174.802216,340.784576 150.336258C346.774231 104.828735,318.111374 56.921570,266.124695 56.921570C196.054001 56.921570,168.356232 143.955597,210.771744 194.838120C236.815552 226.080795,279.534668 188.868744,257.268845 161.825363C247.885193 150.428268,232.617218 164.781097,241.547089 173.987900C250.476959 183.194702,265.289246 168.372055,254.183975 158.644821C227.884491 135.608810,189.353210 177.162994,219.861801 204.199753C247.184372 228.413055,286.290375 227.000000,322.803665 227.000000L527.561172 227.000000C594.806046 227.000000,663.926483 202.215134,680.631927 140.490402C687.333344 115.729416,665.489944 92.765762,640.908417 98.648972C626.595001 102.074661,632.641281 121.954117,644.759903 118.157776C656.906555 114.352646,650.496292 94.560944,636.801041 99.936600C628.588516 103.160156,621.968750 109.934128,619.922394 120.185562C617.876038 130.436996,621.387680 139.233368,627.733139 145.362961C638.314896 155.584717,651.832611 139.770981,642.077805 131.593933C632.345505 123.435776,619.130188 139.470291,631.031372 148.128860C651.457764 162.989838,680.427063 150.198425,683.772400 124.781693C691.758621 64.104996,653.541473 0.228760,584.225891 0.228760C575.186646 0.228760,566.676270 1.315033,558.728241 3.338837C543.385132 7.245651,531.856674 19.280319,525.032944 33.631226C518.070221 48.274445,537.701797 55.452255,541.836288 44.746796C545.982849 34.010025,526.627747 26.141098,521.945526 41.612961C519.141281 50.879242,518.845810 60.410324,520.571213 69.421417C523.576660 85.117645,543.559799 79.486572,540.651321 68.311462C537.742935 57.136612,517.559570 61.953949,522.572266 77.116760C525.429642 85.759933,530.166321 93.655350,536.294449 100.018127C547.311462 111.457016,561.014954 95.805573,552.362396 87.975922C543.686829 80.125412,529.479691 95.356400,541.969788 105.151611C548.864441 110.558670,557.008926 114.205338,565.915375 115.306854C581.756790 117.266052,582.390854 96.243118,570.592789 95.795059C558.834244 95.348495,557.856400 116.363083,573.850891 115.603577C578.503113 115.382645,583.310349 114.468979,588.211639 112.764526C593.112930 111.060074,597.449799 108.793869,601.235291 106.080536C614.249863 96.751999,600.444016 80.878525,591.499741 88.524582C582.525299 96.196411,596.066650 112.289688,607.274231 100.924271C613.575577 94.534195,617.700104 86.620834,619.752182 78.102417C623.469589 62.671005,602.877533 59.541565,600.944946 71.081116C599.017456 82.590057,619.475342 86.361725,621.017700 70.555374C621.875641 61.763107,620.691391 52.632263,617.569336 44.081055C612.092331 29.079758,593.274963 37.825073,597.927811 48.393311C602.580795 58.961853,621.746002 50.978912,614.364029 36.804840C610.125900 28.667282,603.980209 21.375870,596.031311 15.848877C582.759720 6.620926,572.463409 24.801132,582.377304 30.648468C592.262131 36.478653,603.204132 18.668762,588.658035 11.505310C574.448181 4.507446,558.000427 2.158279,543.591934 8.592407C481.318924 36.400528,462.987411 127.213959,510.421921 184.117432C538.448929 217.739258,581.226242 176.153458,556.881775 151.054382C532.604858 126.024963,489.694733 167.490356,522.542038 196.599670C554.128204 224.591370,598.650848 227.000000,640.904861 227.000000L1041.473297 227.000000C1108.719971 227.000000,1177.843094 202.216537,1194.548935 140.490402C1205.874725 98.642929,1147.649582 87.204437,1140.788895 121.572800C1133.931808 155.923126,1192.035599 167.737473,1197.689407 124.781693C1205.675629 64.104996,1167.458481 0.228760,1098.142899 0.228760C1089.103653 0.228760,1080.593277 1.315033,1072.645248 3.338837C1030.568176 14.052902,1049.832855 70.927521,1083.507278 59.217087C1117.282227 47.471680,1097.049973 -9.064713,1057.508942 8.592407C995.235931 36.400528,976.904419 127.213959,1024.338928 184.117432C1052.365936 217.739258,1095.143250 176.153458,1070.798782 151.054382C1046.521866 126.024963,1003.611740 167.490356,1036.459045 196.599670C1068.045212 224.591370,1112.567856 227.000000,1154.821869 227.000000L1669.564529 227.000000C1736.816452 227.000000,1805.947388 202.220642,1822.654343 140.490402C1833.980133 98.642929,1775.754990 87.204437,1768.894302 121.572800C1762.037216 155.923126,1820.141006 167.737473,1825.794815 124.781693C1833.781036 64.104996,1795.563889 0.228760,1726.248306 0.228760C1717.209061 0.228760,1708.698685 1.315033,1700.750656 3.338837C1658.673584 14.052902,1677.938263 70.927521,1711.612686 59.217087C1745.387634 47.471680,1725.155380 -9.064713,1685.614349 8.592407C1623.341339 36.400528,1605.009827 127.213959,1652.444336 184.117432C1680.471344 217.739258,1723.248657 176.153458,1698.904190 151.054382C1674.627274 126.024963,1631.717148 167.490356,1664.564453 196.599670C1696.150620 224.591370,1740.673264 227.000000,1782.927277 227.000000L2268.712402 227.000000" style="stroke:rgb(0.000000%,0.000000%,0.000000%); stroke-width: 3px;stroke-linecap: round;stroke-linejoin: round;stroke-miterlimit: 10.000000;fill: none;vector-effect: non-scaling-stroke;"></path>
<path></path></svg>
