<?xml version="1.0" encoding="UTF-8" standalone="no"?>
<!-- Created by MetaPost 2.000 on 2018.09.03:1640 -->

<svg
   xmlns:dc="http://purl.org/dc/elements/1.1/"
   xmlns:cc="http://creativecommons.org/ns#"
   xmlns:rdf="http://www.w3.org/1999/02/22-rdf-syntax-ns#"
   xmlns:svg="http://www.w3.org/2000/svg"
   xmlns="http://www.w3.org/2000/svg"
   xmlns:xlink="http://www.w3.org/1999/xlink"
   xmlns:sodipodi="http://sodipodi.sourceforge.net/DTD/sodipodi-0.dtd"
   xmlns:inkscape="http://www.inkscape.org/namespaces/inkscape"
   version="1.1"
   width="1427.320251"
   height="378.440948"
   viewBox="0 0 1427.320251 378.440948"
   id="svg4"
   sodipodi:docname="timelineOnlyLoops.svg"
   inkscape:version="0.92.2 (5c3e80d, 2017-08-06)">
  <metadata
     id="metadata10">
    <rdf:RDF>
      <cc:Work
         rdf:about="">
        <dc:format>image/svg+xml</dc:format>
        <dc:type
           rdf:resource="http://purl.org/dc/dcmitype/StillImage" />
        <dc:title />
      </cc:Work>
    </rdf:RDF>
  </metadata>
  <defs
     id="defs8">
    <path
       inkscape:connector-curvature="0"
       d="M -92.958418,450.16454 C 12.680582,433.15342 118.85608,419.95827 225.36098,410.59568"
       style="fill:none;stroke:none;stroke-width:1.5;stroke-linecap:round;stroke-linejoin:round;stroke-miterlimit:10"
       id="path1966-6"
       sodipodi:nodetypes="cc" />
  </defs>
  <sodipodi:namedview
     pagecolor="#ffffff"
     bordercolor="#666666"
     borderopacity="1"
     objecttolerance="10"
     gridtolerance="10"
     guidetolerance="10"
     inkscape:pageopacity="0"
     inkscape:pageshadow="2"
     inkscape:window-width="1366"
     inkscape:window-height="744"
     id="namedview6"
     showgrid="false"
     showborder="false"
     inkscape:zoom="0.33985034"
     inkscape:cx="688.15292"
     inkscape:cy="-205.3365"
     inkscape:window-x="283"
     inkscape:window-y="1080"
     inkscape:window-maximized="1"
     inkscape:current-layer="svg4" />
  <!-- Original BoundingBox: -5.000000 -5.000000 1422.320251 373.440948 -->
  <path
     d="M5.000000 373.000000C110.639053 355.988876,216.814545 342.793732,323.319382 333.431137C559.275497 312.688782,520.126450 5.059860,341.528809 19.037766C162.933914 33.015472,172.120270 342.989410,408.433609 326.769699C488.129974 321.299622,567.979431 317.971542,647.895599 316.792358C884.753876 313.297470,868.118042 3.634659,688.992661 4.561127C509.872086 5.487564,496.438065 315.305481,733.325104 316.350571C836.317627 316.804947,939.226974 320.828598,1041.868423 328.406769C1278.091873 345.847519,1288.881653 35.923965,1110.357346 21.023102C931.835464 6.122452,891.096115 313.546005,1126.944870 335.507858C1225.755081 344.708908,1324.268738 357.210709,1422.320251 373.000000"
     style="stroke:rgb(0.000000%,0.000000%,0.000000%); stroke-width: 10.000000;stroke-linecap: round;stroke-linejoin: round;stroke-miterlimit: 10.000000;fill: none;"
     id="path2" />
  <path
     inkscape:connector-curvature="0"
     d="M 4.889242,487.30184 C 329.67661,448.05956 889.08446,380.97311 1416.3245,485.83061"
     style="fill:none;stroke:none;stroke-width:10;stroke-linecap:round;stroke-linejoin:round;stroke-miterlimit:10"
     id="path2-3"
     sodipodi:nodetypes="cc" />
  <text
     xml:space="preserve"
     style="font-style:normal;font-variant:normal;font-weight:normal;font-stretch:normal;font-size:96px;line-height:19.66666603px;font-family:Wremena;-inkscape-font-specification:Wremena;font-variant-ligatures:normal;font-variant-caps:normal;font-variant-numeric:normal;font-feature-settings:normal;text-align:start;letter-spacing:0px;word-spacing:0px;writing-mode:lr-tb;text-anchor:start;fill:#000000;fill-opacity:1;stroke:none;stroke-width:1px;stroke-linecap:butt;stroke-linejoin:miter;stroke-opacity:1;"
     id="text848"
     x="-246.72382"
     y="57.378197"><textPath
       xlink:href="#path2-3"
       id="textPath853"><tspan
   style="font-style:normal;font-variant:normal;font-weight:bold;font-stretch:expanded;font-family:Syne;-inkscape-font-specification:'Syne Bold Expanded';text-align:start;text-anchor:start;stroke:none;"
   id="tspan846">C O N T  O  U    R       9 </tspan></textPath></text>
</svg>
