<?xml version="1.0" encoding="UTF-8" standalone="no"?>
<!-- Created by MetaPost 2.000 on 2018.09.03:1639 -->

<svg
   xmlns:dc="http://purl.org/dc/elements/1.1/"
   xmlns:cc="http://creativecommons.org/ns#"
   xmlns:rdf="http://www.w3.org/1999/02/22-rdf-syntax-ns#"
   xmlns:svg="http://www.w3.org/2000/svg"
   xmlns="http://www.w3.org/2000/svg"
   xmlns:xlink="http://www.w3.org/1999/xlink"
   xmlns:sodipodi="http://sodipodi.sourceforge.net/DTD/sodipodi-0.dtd"
   xmlns:inkscape="http://www.inkscape.org/namespaces/inkscape"
   version="1.1"
   width="1422.320251"
   height="372.615707"
   viewBox="0 0 1422.320251 372.615707"
   id="svg4"
   sodipodi:docname="timelineOnlyDays.svg"
   inkscape:version="0.92.2 (5c3e80d, 2017-08-06)">
  <metadata
     id="metadata10">
    <rdf:RDF>
      <cc:Work
         rdf:about="">
        <dc:format>image/svg+xml</dc:format>
        <dc:type
           rdf:resource="http://purl.org/dc/dcmitype/StillImage" />
        <dc:title></dc:title>
      </cc:Work>
    </rdf:RDF>
  </metadata>
  <defs
     id="defs8">
    <path
       inkscape:connector-curvature="0"
       d="M 4.889242,427.30184 C 329.67661,388.05956 889.08446,320.97311 1416.3245,425.83061"
       style="fill:none;stroke:none;stroke-width:10;stroke-linecap:round;stroke-linejoin:round;stroke-miterlimit:10"
       id="path2-3"
       sodipodi:nodetypes="cc" />
    <path
       inkscape:connector-curvature="0"
       d="M 4.889242,427.30184 C 329.67661,388.05956 889.08446,320.97311 1416.3245,425.83061"
       style="fill:none;stroke:none;stroke-width:10;stroke-linecap:round;stroke-linejoin:round;stroke-miterlimit:10"
       id="path2-3-3"
       sodipodi:nodetypes="cc" />
  </defs>
  <sodipodi:namedview
     pagecolor="#ffffff"
     bordercolor="#666666"
     borderopacity="1"
     objecttolerance="10"
     gridtolerance="10"
     guidetolerance="10"
     inkscape:pageopacity="0"
     inkscape:pageshadow="2"
     inkscape:window-width="1920"
     inkscape:window-height="1029"
     id="namedview6"
     showgrid="false"
     borderlayer="true"
     showborder="false"
     inkscape:zoom="0.48231053"
     inkscape:cx="539.31503"
     inkscape:cy="253.49876"
     inkscape:window-x="0"
     inkscape:window-y="27"
     inkscape:window-maximized="1"
     inkscape:current-layer="svg4" />
  <!-- Original BoundingBox: -2.500000 -2.500000 1419.820251 370.115707 -->
  <path
     d="M2.000000 370.000000C107.639053 352.988876,213.814545 339.793732,320.319382 330.431137C360.465225 326.902008,400.527771 316.378052,431.418839 290.473923C466.828842 260.780380,433.573212 225.456635,419.477112 242.465607C405.501709 259.328949,445.741714 286.249878,468.138565 246.448044C499.254044 191.152176,493.324753 122.756134,460.716003 74.814423C421.615555 17.328537,357.447418 77.237839,388.960449 109.662582C420.914429 142.541046,482.724197 79.099670,425.824188 39.053284C402.211380 22.434525,372.681046 13.364594,338.528809 16.037766C304.376556 18.710938,276.617065 32.265091,255.877579 52.355408C172.539032 133.085281,302.301941 238.136932,360.005859 156.433212C416.930847 75.832397,276.495148 -11.787460,226.974579 93.110367C202.222733 145.541397,207.007324 214.026093,246.346451 263.806992C274.663452 299.640167,310.225769 266.786621,293.796570 252.302917C277.225677 237.694305,249.871140 277.762161,289.469955 301.584579C324.015350 322.366882,365.227478 326.529297,405.433609 323.769699C485.129974 318.299622,564.979431 314.971542,644.895599 313.792358C685.199982 313.197662,725.932709 305.625946,758.636032 282.037155C821.268051 236.860886,753.262344 168.722855,719.550629 203.841202C685.421539 239.394363,756.271255 304.443344,798.466568 240.804276C856.149246 153.807114,816.421204 24.142181,714.423859 4.178680C620.281113 -14.247482,614.643082 115.317123,686.579178 114.945007C758.515396 114.572891,751.538025 -14.925064,657.592178 4.472229C555.806046 25.488327,517.420441 155.556564,575.998398 241.952942C601.628784 279.755051,639.491501 249.580933,624.161346 233.938309C608.699112 218.160919,578.497330 256.128784,616.254807 282.773666C649.202423 306.024307,690.014267 313.172729,730.325104 313.350571C833.317627 313.804947,936.226974 317.828598,1038.868423 325.406769C1079.059006 328.374100,1120.291183 324.423706,1154.942673 303.820297C1221.320496 264.352722,1159.598984 190.473892,1122.916962 222.477356C1085.780746 254.877045,1150.608032 325.930099,1198.259750 266.266663C1263.401581 184.704346,1235.281921 52.036652,1135.446289 23.141739C1021.507568 -9.834946,996.500900 156.684540,1095.097137 164.913849C1193.693176 173.143143,1196.638184 4.784042,1078.810638 18.414246C975.565689 30.357513,925.841110 156.527206,976.558975 247.760345C998.750198 287.678741,1039.130325 260.966858,1025.241730 244.031219C1011.233505 226.949661,977.795975 262.101547,1013.052475 291.977463C1043.809677 318.040726,1083.817596 328.771271,1123.944870 332.507858C1222.755081 341.708908,1321.268738 354.210709,1419.320251 370.000000"
     style="stroke:rgb(0.000000%,0.000000%,0.000000%); stroke-width: 5.000000;stroke-linecap: round;stroke-linejoin: round;stroke-miterlimit: 10.000000;fill: none;"
     id="path2" />
  <path
     inkscape:connector-curvature="0"
     d="M 15.809636,492.62596 C 340.597,453.38368 900.00486,386.29723 1427.245,491.15473"
     style="fill:none;stroke:none;stroke-width:10;stroke-linecap:round;stroke-linejoin:round;stroke-miterlimit:10"
     id="path2-3-6"
     sodipodi:nodetypes="cc" />
  <text
     xml:space="preserve"
     style="font-style:normal;font-variant:normal;font-weight:normal;font-stretch:normal;font-size:48px;line-height:19.66666603px;font-family:Wremena;-inkscape-font-specification:Wremena;font-variant-ligatures:normal;font-variant-caps:normal;font-variant-numeric:normal;font-feature-settings:normal;text-align:start;letter-spacing:0px;word-spacing:0px;writing-mode:lr-tb;text-anchor:start;fill:#000000;fill-opacity:1;stroke:none;stroke-width:1px;stroke-linecap:butt;stroke-linejoin:miter;stroke-opacity:1"
     id="text849"
     x="-12.440118"
     y="-51.833828"
     transform="translate(-4,-60)"><textPath
       xlink:href="#path2-3-6"
       id="textPath854"><tspan
   style="font-style:normal;font-variant:normal;font-weight:bold;font-stretch:expanded;font-family:Syne;-inkscape-font-specification:'Syne Bold Expanded';text-align:start;text-anchor:start"
   id="tspan847">C O N T  O  U    R       9 </tspan></textPath></text>
</svg>
