<?xml version="1.0"?>
<!-- Created by MetaPost 2.000 on 2018.09.03:1640 -->
<svg version="1.1" xmlns="http://www.w3.org/2000/svg" xmlns:xlink="http://www.w3.org/1999/xlink" width="1427.320251" height="378.440948" viewBox="0 0 1427.320251 378.440948">
<!-- Original BoundingBox: -5.000000 -5.000000 1422.320251 373.440948 -->
  <path d="M5.000000 373.000000C110.639053 355.988876,216.814545 342.793732,323.319382 333.431137C559.275497 312.688782,520.126450 5.059860,341.528809 19.037766C162.933914 33.015472,172.120270 342.989410,408.433609 326.769699C488.129974 321.299622,567.979431 317.971542,647.895599 316.792358C884.753876 313.297470,868.118042 3.634659,688.992661 4.561127C509.872086 5.487564,496.438065 315.305481,733.325104 316.350571C836.317627 316.804947,939.226974 320.828598,1041.868423 328.406769C1278.091873 345.847519,1288.881653 35.923965,1110.357346 21.023102C931.835464 6.122452,891.096115 313.546005,1126.944870 335.507858C1225.755081 344.708908,1324.268738 357.210709,1422.320251 373.000000" style="stroke:rgb(0.000000%,0.000000%,0.000000%); stroke-width: 10.000000;stroke-linecap: round;stroke-linejoin: round;stroke-miterlimit: 10.000000;fill: none;"></path>
</svg>
